\relax 
\providecommand\hyper@newdestlabel[2]{}
\catcode `"\active 
\catcode `-\active 
\providecommand\HyperFirstAtBeginDocument{\AtBeginDocument}
\HyperFirstAtBeginDocument{\ifx\hyper@anchor\@undefined
\global\let\oldcontentsline\contentsline
\gdef\contentsline#1#2#3#4{\oldcontentsline{#1}{#2}{#3}}
\global\let\oldnewlabel\newlabel
\gdef\newlabel#1#2{\newlabelxx{#1}#2}
\gdef\newlabelxx#1#2#3#4#5#6{\oldnewlabel{#1}{{#2}{#3}}}
\AtEndDocument{\ifx\hyper@anchor\@undefined
\let\contentsline\oldcontentsline
\let\newlabel\oldnewlabel
\fi}
\fi}
\global\let\hyper@last\relax 
\gdef\HyperFirstAtBeginDocument#1{#1}
\providecommand\HyField@AuxAddToFields[1]{}
\providecommand\HyField@AuxAddToCoFields[2]{}
\bibstyle{plain}
\citation{richzhang-color}
\citation{jia2014caffe}
\select@language{czech}
\@writefile{toc}{\select@language{czech}}
\@writefile{lof}{\select@language{czech}}
\@writefile{lot}{\select@language{czech}}
\@writefile{toc}{\contentsline {section}{\numberline {1}\IeC {\'U}vod}{1}{section.1}}
\@writefile{toc}{\contentsline {section}{\numberline {2}Vstupn\IeC {\'\i } data}{1}{section.2}}
\@writefile{toc}{\contentsline {section}{\numberline {3}Metody}{1}{section.3}}
\@writefile{toc}{\contentsline {section}{\numberline {4}V\IeC {\'y}sledky}{1}{section.4}}
\@writefile{lof}{\contentsline {figure}{\numberline {1}{\ignorespaces P\IeC {\r u}vodn\IeC {\'\i } sn\IeC {\'\i }mek}}{1}{figure.1}}
\newlabel{fig:source_img}{{1}{1}{Původní snímek}{figure.1}{}}
\@writefile{lof}{\contentsline {figure}{\numberline {2}{\ignorespaces Obarven\IeC {\'y} sn\IeC {\'\i }mek}}{1}{figure.2}}
\newlabel{fig:colored_img}{{2}{1}{Obarvený snímek}{figure.2}{}}
\bibdata{reference}
\bibcite{jia2014caffe}{{1}{}{{}}{{}}}
\bibcite{richzhang-color}{{2}{}{{}}{{}}}
\providecommand\NAT@force@numbers{}\NAT@force@numbers
\@writefile{lof}{\contentsline {figure}{\numberline {3}{\ignorespaces P\IeC {\r u}vodn\IeC {\'\i } sn\IeC {\'\i }mek}}{2}{figure.3}}
\newlabel{fig:source2_img}{{3}{2}{Původní snímek}{figure.3}{}}
\@writefile{lof}{\contentsline {figure}{\numberline {4}{\ignorespaces Obarven\IeC {\'y} sn\IeC {\'\i }mek}}{2}{figure.4}}
\newlabel{fig:colored2_img}{{4}{2}{Obarvený snímek}{figure.4}{}}
\@writefile{lof}{\contentsline {figure}{\numberline {5}{\ignorespaces P\IeC {\r u}vodn\IeC {\'\i } sn\IeC {\'\i }mek}}{2}{figure.5}}
\newlabel{fig:source3_img}{{5}{2}{Původní snímek}{figure.5}{}}
\@writefile{lof}{\contentsline {figure}{\numberline {6}{\ignorespaces Obarven\IeC {\'y} sn\IeC {\'\i }mek}}{2}{figure.6}}
\newlabel{fig:colored3_img}{{6}{2}{Obarvený snímek}{figure.6}{}}
\@writefile{toc}{\contentsline {section}{\numberline {5}Z\IeC {\'a}v\IeC {\v e}r}{2}{section.5}}
