\BOOKMARK [1][-]{section.1}{\376\377\000\332\000v\000o\000d}{}% 1
\BOOKMARK [1][-]{section.2}{\376\377\000V\000s\000t\000u\000p\000n\000\355\000\040\000d\000a\000t\000a}{}% 2
\BOOKMARK [1][-]{section.3}{\376\377\000M\000e\000t\000o\000d\000y}{}% 3
\BOOKMARK [1][-]{section.4}{\376\377\000V\000\375\000s\000l\000e\000d\000k\000y}{}% 4
\BOOKMARK [1][-]{section.5}{\376\377\000Z\000\341\000v\001\033\000r}{}% 5
